<?xml version="1.0" encoding="UTF-8"?>
<svg xmlns="http://www.w3.org/2000/svg" xmlns:xlink="http://www.w3.org/1999/xlink" width="20px" height="20px" viewBox="0 0 20 20" version="1.1">
<defs>
<filter id="alpha" filterUnits="objectBoundingBox" x="0%" y="0%" width="100%" height="100%">
  <feColorMatrix type="matrix" in="SourceGraphic" values="0 0 0 0 1 0 0 0 0 1 0 0 0 0 1 0 0 0 1 0"/>
</filter>
<mask id="mask0">
  <g filter="url(#alpha)">
<rect x="0" y="0" width="20" height="20" style="fill:rgb(0%,0%,0%);fill-opacity:0.980392;stroke:none;"/>
  </g>
</mask>
<clipPath id="clip1">
  <rect x="0" y="0" width="20" height="20"/>
</clipPath>
<g id="surface5" clip-path="url(#clip1)">
<path style=" stroke:none;fill-rule:evenodd;fill:rgb(81.176471%,3.529412%,3.529412%);fill-opacity:1;" d="M 19.785156 -0.0195312 C 19.851562 -0.0195312 19.914062 -0.0195312 19.980469 -0.0195312 C 19.980469 0.304688 19.980469 0.632812 19.980469 0.957031 C 19.160156 1.753906 18.324219 2.535156 17.480469 3.300781 C 17.011719 3.71875 16.554688 4.148438 16.113281 4.589844 C 14.785156 5.855469 13.457031 7.117188 12.128906 8.378906 C 11.570312 8.886719 11.023438 9.40625 10.488281 9.941406 C 10.382812 10.03125 10.28125 10.125 10.175781 10.214844 C 10.046875 10.320312 9.929688 10.4375 9.824219 10.566406 C 9.679688 10.683594 9.550781 10.8125 9.433594 10.957031 C 9.375 10.953125 9.335938 10.980469 9.316406 11.035156 C 9.1875 11.140625 9.070312 11.257812 8.964844 11.386719 C 8.875 11.453125 8.796875 11.53125 8.730469 11.621094 C 5.824219 14.394531 2.910156 17.15625 -0.0195312 19.902344 C -0.0195312 19.523438 -0.0195312 19.148438 -0.0195312 18.769531 C 2.910156 16.023438 5.824219 13.261719 8.730469 10.488281 C 8.84375 10.4375 8.9375 10.359375 9.003906 10.253906 C 9.082031 10.203125 9.148438 10.136719 9.199219 10.058594 C 9.25 10.03125 9.289062 9.992188 9.316406 9.941406 C 9.5 9.773438 9.683594 9.601562 9.863281 9.433594 C 9.992188 9.328125 10.109375 9.210938 10.214844 9.082031 C 10.617188 8.730469 11.007812 8.367188 11.386719 7.988281 C 11.675781 7.714844 11.960938 7.441406 12.246094 7.167969 C 13.027344 6.480469 13.78125 5.761719 14.511719 5.019531 C 15.097656 4.484375 15.671875 3.9375 16.230469 3.378906 C 16.386719 3.234375 16.542969 3.09375 16.699219 2.949219 C 16.847656 2.804688 17.003906 2.667969 17.167969 2.539062 C 17.269531 2.457031 17.347656 2.359375 17.402344 2.246094 C 18.222656 1.519531 19.015625 0.761719 19.785156 -0.0195312 Z M 19.785156 -0.0195312 "/>
</g>
<mask id="mask1">
  <g filter="url(#alpha)">
<rect x="0" y="0" width="20" height="20" style="fill:rgb(0%,0%,0%);fill-opacity:0.980392;stroke:none;"/>
  </g>
</mask>
<clipPath id="clip2">
  <rect x="0" y="0" width="20" height="20"/>
</clipPath>
<g id="surface8" clip-path="url(#clip2)">
<path style=" stroke:none;fill-rule:evenodd;fill:rgb(13.72549%,61.176471%,92.54902%);fill-opacity:1;" d="M 9.667969 0.800781 C 10.152344 0.789062 10.632812 0.800781 11.113281 0.839844 C 11.113281 1.230469 11.113281 1.621094 11.113281 2.011719 C 11.164062 2.003906 11.203125 2.015625 11.230469 2.050781 C 10.800781 2.023438 10.371094 2.007812 9.941406 2.011719 C 9.824219 2.011719 9.707031 2.011719 9.589844 2.011719 C 9.566406 1.597656 9.59375 1.195312 9.667969 0.800781 Z M 9.667969 0.800781 "/>
</g>
<mask id="mask2">
  <g filter="url(#alpha)">
<rect x="0" y="0" width="20" height="20" style="fill:rgb(0%,0%,0%);fill-opacity:0.988235;stroke:none;"/>
  </g>
</mask>
<clipPath id="clip3">
  <rect x="0" y="0" width="20" height="20"/>
</clipPath>
<g id="surface11" clip-path="url(#clip3)">
<path style=" stroke:none;fill-rule:evenodd;fill:rgb(16.862745%,65.490196%,98.039216%);fill-opacity:1;" d="M 9.667969 0.800781 C 9.59375 1.195312 9.566406 1.597656 9.589844 2.011719 C 9.199219 2.023438 8.808594 2.035156 8.417969 2.050781 C 8.050781 2.066406 7.6875 2.09375 7.324219 2.128906 C 7.324219 1.726562 7.324219 1.320312 7.324219 0.917969 C 8.101562 0.851562 8.882812 0.8125 9.667969 0.800781 Z M 9.667969 0.800781 "/>
</g>
<mask id="mask3">
  <g filter="url(#alpha)">
<rect x="0" y="0" width="20" height="20" style="fill:rgb(0%,0%,0%);fill-opacity:0.992157;stroke:none;"/>
  </g>
</mask>
<clipPath id="clip4">
  <rect x="0" y="0" width="20" height="20"/>
</clipPath>
<g id="surface14" clip-path="url(#clip4)">
<path style=" stroke:none;fill-rule:evenodd;fill:rgb(10.980392%,56.470588%,87.45098%);fill-opacity:1;" d="M 11.113281 0.839844 C 11.660156 0.839844 12.207031 0.867188 12.753906 0.917969 C 12.828125 1.3125 12.855469 1.714844 12.832031 2.128906 C 12.882812 2.121094 12.921875 2.132812 12.949219 2.167969 C 12.6875 2.140625 12.429688 2.117188 12.167969 2.089844 C 11.90625 2.078125 11.648438 2.0625 11.386719 2.050781 C 11.335938 2.050781 11.28125 2.050781 11.230469 2.050781 C 11.203125 2.015625 11.164062 2.003906 11.113281 2.011719 C 11.113281 1.621094 11.113281 1.230469 11.113281 0.839844 Z M 11.113281 0.839844 "/>
</g>
<mask id="mask4">
  <g filter="url(#alpha)">
<rect x="0" y="0" width="20" height="20" style="fill:rgb(0%,0%,0%);fill-opacity:0.996078;stroke:none;"/>
  </g>
</mask>
<clipPath id="clip5">
  <rect x="0" y="0" width="20" height="20"/>
</clipPath>
<g id="surface17" clip-path="url(#clip5)">
<path style=" stroke:none;fill-rule:evenodd;fill:rgb(12.156863%,59.215686%,90.588235%);fill-opacity:1;" d="M 7.324219 0.917969 C 7.324219 1.320312 7.324219 1.726562 7.324219 2.128906 C 6.660156 2.191406 5.996094 2.269531 5.332031 2.363281 C 5.332031 1.960938 5.332031 1.554688 5.332031 1.152344 C 5.992188 1.039062 6.65625 0.960938 7.324219 0.917969 Z M 7.324219 0.917969 "/>
</g>
<mask id="mask5">
  <g filter="url(#alpha)">
<rect x="0" y="0" width="20" height="20" style="fill:rgb(0%,0%,0%);fill-opacity:0.988235;stroke:none;"/>
  </g>
</mask>
<clipPath id="clip6">
  <rect x="0" y="0" width="20" height="20"/>
</clipPath>
<g id="surface20" clip-path="url(#clip6)">
<path style=" stroke:none;fill-rule:evenodd;fill:rgb(7.45098%,52.54902%,82.745098%);fill-opacity:1;" d="M 12.753906 0.917969 C 13.292969 0.960938 13.824219 1.027344 14.355469 1.113281 C 14.355469 1.515625 14.355469 1.921875 14.355469 2.324219 C 13.902344 2.261719 13.445312 2.210938 12.988281 2.167969 C 12.976562 2.167969 12.960938 2.167969 12.949219 2.167969 C 12.921875 2.132812 12.882812 2.121094 12.832031 2.128906 C 12.855469 1.714844 12.828125 1.3125 12.753906 0.917969 Z M 12.753906 0.917969 "/>
</g>
<mask id="mask6">
  <g filter="url(#alpha)">
<rect x="0" y="0" width="20" height="20" style="fill:rgb(0%,0%,0%);fill-opacity:0.988235;stroke:none;"/>
  </g>
</mask>
<clipPath id="clip7">
  <rect x="0" y="0" width="20" height="20"/>
</clipPath>
<g id="surface23" clip-path="url(#clip7)">
<path style=" stroke:none;fill-rule:evenodd;fill:rgb(5.098039%,47.058824%,76.470588%);fill-opacity:1;" d="M 14.355469 1.113281 C 15.265625 1.214844 16.140625 1.457031 16.972656 1.835938 C 17.160156 1.929688 17.304688 2.066406 17.402344 2.246094 C 17.347656 2.359375 17.269531 2.457031 17.167969 2.539062 C 17.003906 2.667969 16.847656 2.804688 16.699219 2.949219 C 15.933594 2.667969 15.152344 2.457031 14.355469 2.324219 C 14.355469 1.921875 14.355469 1.515625 14.355469 1.113281 Z M 14.355469 1.113281 "/>
</g>
<mask id="mask7">
  <g filter="url(#alpha)">
<rect x="0" y="0" width="20" height="20" style="fill:rgb(0%,0%,0%);fill-opacity:0.988235;stroke:none;"/>
  </g>
</mask>
<clipPath id="clip8">
  <rect x="0" y="0" width="20" height="20"/>
</clipPath>
<g id="surface26" clip-path="url(#clip8)">
<path style=" stroke:none;fill-rule:evenodd;fill:rgb(6.666667%,51.372549%,81.568627%);fill-opacity:1;" d="M 5.332031 1.152344 C 5.332031 1.554688 5.332031 1.960938 5.332031 2.363281 C 4.835938 2.46875 4.339844 2.585938 3.847656 2.714844 C 3.871094 2.300781 3.84375 1.898438 3.769531 1.503906 C 4.285156 1.363281 4.804688 1.246094 5.332031 1.152344 Z M 5.332031 1.152344 "/>
</g>
<mask id="mask8">
  <g filter="url(#alpha)">
<rect x="0" y="0" width="20" height="20" style="fill:rgb(0%,0%,0%);fill-opacity:0.988235;stroke:none;"/>
  </g>
</mask>
<clipPath id="clip9">
  <rect x="0" y="0" width="20" height="20"/>
</clipPath>
<g id="surface29" clip-path="url(#clip9)">
<path style=" stroke:none;fill-rule:evenodd;fill:rgb(2.352941%,45.490196%,74.901961%);fill-opacity:1;" d="M 3.769531 1.503906 C 3.84375 1.898438 3.871094 2.300781 3.847656 2.714844 C 3.597656 2.808594 3.351562 2.910156 3.105469 3.027344 C 3.023438 3.066406 2.945312 3.054688 2.871094 2.988281 C 2.695312 2.867188 2.566406 2.710938 2.480469 2.519531 C 2.484375 2.300781 2.574219 2.125 2.753906 1.992188 C 3.070312 1.78125 3.40625 1.617188 3.769531 1.503906 Z M 3.769531 1.503906 "/>
</g>
<mask id="mask9">
  <g filter="url(#alpha)">
<rect x="0" y="0" width="20" height="20" style="fill:rgb(0%,0%,0%);fill-opacity:0.988235;stroke:none;"/>
  </g>
</mask>
<clipPath id="clip10">
  <rect x="0" y="0" width="20" height="20"/>
</clipPath>
<g id="surface32" clip-path="url(#clip10)">
<path style=" stroke:none;fill-rule:evenodd;fill:rgb(4.705882%,54.901961%,89.019608%);fill-opacity:1;" d="M 2.480469 2.519531 C 2.566406 2.710938 2.695312 2.867188 2.871094 2.988281 C 2.882812 3.398438 2.871094 3.800781 2.832031 4.199219 C 2.675781 4.128906 2.566406 4.011719 2.5 3.847656 C 2.480469 3.40625 2.472656 2.960938 2.480469 2.519531 Z M 2.480469 2.519531 "/>
</g>
<mask id="mask10">
  <g filter="url(#alpha)">
<rect x="0" y="0" width="20" height="20" style="fill:rgb(0%,0%,0%);fill-opacity:0.992157;stroke:none;"/>
  </g>
</mask>
<clipPath id="clip11">
  <rect x="0" y="0" width="20" height="20"/>
</clipPath>
<g id="surface35" clip-path="url(#clip11)">
<path style=" stroke:none;fill-rule:evenodd;fill:rgb(15.686275%,59.607843%,94.509804%);fill-opacity:1;" d="M 17.480469 3.300781 C 17.539062 3.625 17.460938 3.902344 17.246094 4.140625 C 17.089844 4.257812 16.917969 4.355469 16.738281 4.433594 C 16.574219 4.472656 16.417969 4.53125 16.269531 4.609375 C 16.207031 4.640625 16.15625 4.632812 16.113281 4.589844 C 16.554688 4.148438 17.011719 3.71875 17.480469 3.300781 Z M 17.480469 3.300781 "/>
</g>
<mask id="mask11">
  <g filter="url(#alpha)">
<rect x="0" y="0" width="20" height="20" style="fill:rgb(0%,0%,0%);fill-opacity:0.972549;stroke:none;"/>
  </g>
</mask>
<clipPath id="clip12">
  <rect x="0" y="0" width="20" height="20"/>
</clipPath>
<g id="surface38" clip-path="url(#clip12)">
<path style=" stroke:none;fill-rule:evenodd;fill:rgb(0.784314%,45.490196%,76.862745%);fill-opacity:1;" d="M 2.949219 4.277344 C 3.035156 4.328125 3.125 4.367188 3.222656 4.394531 C 3.402344 4.503906 3.597656 4.582031 3.808594 4.628906 C 4.058594 4.726562 4.320312 4.789062 4.589844 4.824219 C 4.691406 4.863281 4.792969 4.886719 4.902344 4.902344 C 5.957031 6.214844 7.023438 7.519531 8.105469 8.808594 C 8.351562 9.113281 8.59375 9.425781 8.828125 9.746094 C 8.910156 9.914062 8.96875 10.082031 9.003906 10.253906 C 8.9375 10.359375 8.84375 10.4375 8.730469 10.488281 C 8.742188 10.195312 8.65625 9.9375 8.476562 9.707031 C 6.613281 7.917969 4.773438 6.105469 2.949219 4.277344 Z M 2.949219 4.277344 "/>
</g>
<mask id="mask12">
  <g filter="url(#alpha)">
<rect x="0" y="0" width="20" height="20" style="fill:rgb(0%,0%,0%);fill-opacity:0.94902;stroke:none;"/>
  </g>
</mask>
<clipPath id="clip13">
  <rect x="0" y="0" width="20" height="20"/>
</clipPath>
<g id="surface41" clip-path="url(#clip13)">
<path style=" stroke:none;fill-rule:evenodd;fill:rgb(2.745098%,45.490196%,76.470588%);fill-opacity:1;" d="M 16.738281 4.433594 C 14.996094 6.195312 13.242188 7.953125 11.484375 9.707031 C 11.355469 9.851562 11.277344 10.019531 11.25 10.214844 C 11.230469 13.195312 11.222656 16.179688 11.230469 19.160156 C 10.285156 19.082031 9.484375 18.703125 8.828125 18.027344 C 8.800781 17.976562 8.777344 17.921875 8.75 17.871094 C 8.730469 15.789062 8.722656 13.703125 8.730469 11.621094 C 8.796875 11.53125 8.875 11.453125 8.964844 11.386719 C 8.957031 13.507812 8.964844 15.632812 8.984375 17.753906 C 9.074219 17.890625 9.1875 18.007812 9.316406 18.105469 C 9.355469 18.132812 9.394531 18.15625 9.433594 18.183594 C 9.558594 18.292969 9.703125 18.371094 9.863281 18.417969 C 9.929688 18.476562 10.007812 18.515625 10.097656 18.535156 C 10.226562 18.617188 10.371094 18.671875 10.527344 18.691406 C 10.675781 18.761719 10.832031 18.785156 10.996094 18.769531 C 10.988281 15.851562 10.996094 12.9375 11.015625 10.019531 C 11.078125 9.832031 11.167969 9.664062 11.289062 9.511719 C 11.566406 9.152344 11.851562 8.800781 12.148438 8.457031 C 12.175781 8.421875 12.167969 8.394531 12.128906 8.378906 C 13.457031 7.117188 14.785156 5.855469 16.113281 4.589844 C 16.15625 4.632812 16.207031 4.640625 16.269531 4.609375 C 16.417969 4.53125 16.574219 4.472656 16.738281 4.433594 Z M 16.738281 4.433594 "/>
</g>
</defs>
<g id="surface1">
<use xlink:href="#surface5" mask="url(#mask0)"/>
<use xlink:href="#surface8" mask="url(#mask1)"/>
<use xlink:href="#surface11" mask="url(#mask2)"/>
<use xlink:href="#surface14" mask="url(#mask3)"/>
<use xlink:href="#surface17" mask="url(#mask4)"/>
<use xlink:href="#surface20" mask="url(#mask5)"/>
<use xlink:href="#surface23" mask="url(#mask6)"/>
<use xlink:href="#surface26" mask="url(#mask7)"/>
<use xlink:href="#surface29" mask="url(#mask8)"/>
<path style=" stroke:none;fill-rule:evenodd;fill:rgb(85.490196%,85.882353%,85.882353%);fill-opacity:1;" d="M 9.589844 2.011719 C 9.707031 2.011719 9.824219 2.011719 9.941406 2.011719 C 9.792969 2.050781 9.636719 2.0625 9.472656 2.050781 C 9.230469 2.679688 8.976562 3.304688 8.710938 3.925781 C 8.6875 3.980469 8.695312 4.035156 8.730469 4.082031 C 8.703125 4.082031 8.679688 4.082031 8.652344 4.082031 C 8.3125 4.070312 7.972656 4.042969 7.636719 4.003906 C 7.90625 3.355469 8.164062 2.703125 8.417969 2.050781 C 8.808594 2.035156 9.199219 2.023438 9.589844 2.011719 Z M 9.589844 2.011719 "/>
<path style=" stroke:none;fill-rule:evenodd;fill:rgb(92.54902%,92.54902%,92.54902%);fill-opacity:1;" d="M 9.941406 2.011719 C 10.371094 2.007812 10.800781 2.023438 11.230469 2.050781 C 11.28125 2.050781 11.335938 2.050781 11.386719 2.050781 C 11.097656 2.722656 10.824219 3.398438 10.566406 4.082031 C 9.953125 4.082031 9.34375 4.082031 8.730469 4.082031 C 8.695312 4.035156 8.6875 3.980469 8.710938 3.925781 C 8.976562 3.304688 9.230469 2.679688 9.472656 2.050781 C 9.636719 2.0625 9.792969 2.050781 9.941406 2.011719 Z M 9.941406 2.011719 "/>
<path style=" stroke:none;fill-rule:evenodd;fill:rgb(79.607843%,79.607843%,80%);fill-opacity:1;" d="M 8.417969 2.050781 C 8.164062 2.703125 7.90625 3.355469 7.636719 4.003906 C 6.609375 3.957031 5.59375 3.828125 4.589844 3.613281 C 4.328125 3.542969 4.066406 3.464844 3.808594 3.378906 C 3.609375 3.320312 3.414062 3.257812 3.222656 3.183594 C 3.171875 3.140625 3.132812 3.085938 3.105469 3.027344 C 3.351562 2.910156 3.597656 2.808594 3.847656 2.714844 C 4.339844 2.585938 4.835938 2.46875 5.332031 2.363281 C 5.996094 2.269531 6.660156 2.191406 7.324219 2.128906 C 7.6875 2.09375 8.050781 2.066406 8.417969 2.050781 Z M 8.417969 2.050781 "/>
<path style=" stroke:none;fill-rule:evenodd;fill:rgb(84.313725%,84.313725%,84.313725%);fill-opacity:1;" d="M 11.386719 2.050781 C 11.648438 2.0625 11.90625 2.078125 12.167969 2.089844 C 11.933594 2.769531 11.660156 3.433594 11.347656 4.082031 C 11.269531 4.082031 11.191406 4.082031 11.113281 4.082031 C 10.929688 4.082031 10.75 4.082031 10.566406 4.082031 C 10.824219 3.398438 11.097656 2.722656 11.386719 2.050781 Z M 11.386719 2.050781 "/>
<path style=" stroke:none;fill-rule:evenodd;fill:rgb(74.509804%,74.509804%,74.509804%);fill-opacity:1;" d="M 12.167969 2.089844 C 12.429688 2.117188 12.6875 2.140625 12.949219 2.167969 C 12.960938 2.167969 12.976562 2.167969 12.988281 2.167969 C 12.75 2.785156 12.503906 3.398438 12.246094 4.003906 C 11.949219 4.042969 11.648438 4.070312 11.347656 4.082031 C 11.660156 3.433594 11.933594 2.769531 12.167969 2.089844 Z M 12.167969 2.089844 "/>
<path style=" stroke:none;fill-rule:evenodd;fill:rgb(69.019608%,69.019608%,69.411765%);fill-opacity:1;" d="M 12.988281 2.167969 C 13.445312 2.210938 13.902344 2.261719 14.355469 2.324219 C 15.152344 2.457031 15.933594 2.667969 16.699219 2.949219 C 16.542969 3.09375 16.386719 3.234375 16.230469 3.378906 C 15.488281 3.589844 14.730469 3.746094 13.964844 3.847656 C 13.507812 3.902344 13.054688 3.953125 12.597656 4.003906 C 12.480469 4.003906 12.363281 4.003906 12.246094 4.003906 C 12.503906 3.398438 12.75 2.785156 12.988281 2.167969 Z M 12.988281 2.167969 "/>
<use xlink:href="#surface32" mask="url(#mask9)"/>
<path style=" stroke:none;fill-rule:evenodd;fill:rgb(12.156863%,62.352941%,96.078431%);fill-opacity:1;" d="M 2.871094 2.988281 C 2.945312 3.054688 3.023438 3.066406 3.105469 3.027344 C 3.132812 3.085938 3.171875 3.140625 3.222656 3.183594 C 3.222656 3.585938 3.222656 3.992188 3.222656 4.394531 C 3.125 4.367188 3.035156 4.328125 2.949219 4.277344 C 2.902344 4.261719 2.863281 4.234375 2.832031 4.199219 C 2.871094 3.800781 2.882812 3.398438 2.871094 2.988281 Z M 2.871094 2.988281 "/>
<path style=" stroke:none;fill-rule:evenodd;fill:rgb(21.568627%,68.235294%,99.607843%);fill-opacity:1;" d="M 3.222656 3.183594 C 3.414062 3.257812 3.609375 3.320312 3.808594 3.378906 C 3.757812 3.796875 3.757812 4.210938 3.808594 4.628906 C 3.597656 4.582031 3.402344 4.503906 3.222656 4.394531 C 3.222656 3.992188 3.222656 3.585938 3.222656 3.183594 Z M 3.222656 3.183594 "/>
<path style=" stroke:none;fill-rule:evenodd;fill:rgb(39.607843%,75.294118%,99.607843%);fill-opacity:1;" d="M 3.808594 3.378906 C 4.066406 3.464844 4.328125 3.542969 4.589844 3.613281 C 4.589844 4.015625 4.589844 4.421875 4.589844 4.824219 C 4.320312 4.789062 4.058594 4.726562 3.808594 4.628906 C 3.757812 4.210938 3.757812 3.796875 3.808594 3.378906 Z M 3.808594 3.378906 "/>
<path style=" stroke:none;fill-rule:evenodd;fill:rgb(32.54902%,71.764706%,98.823529%);fill-opacity:1;" d="M 16.230469 3.378906 C 15.671875 3.9375 15.097656 4.484375 14.511719 5.019531 C 14.316406 5.035156 14.121094 5.0625 13.925781 5.097656 C 13.914062 4.679688 13.925781 4.261719 13.964844 3.847656 C 14.730469 3.746094 15.488281 3.589844 16.230469 3.378906 Z M 16.230469 3.378906 "/>
<use xlink:href="#surface35" mask="url(#mask10)"/>
<path style=" stroke:none;fill-rule:evenodd;fill:rgb(49.019608%,79.215686%,99.607843%);fill-opacity:1;" d="M 4.589844 3.613281 C 5.59375 3.828125 6.609375 3.957031 7.636719 4.003906 C 7.972656 4.042969 8.3125 4.070312 8.652344 4.082031 C 8.652344 4.484375 8.652344 4.890625 8.652344 5.292969 C 8.84375 5.28125 9.023438 5.292969 9.199219 5.332031 C 9.1875 5.332031 9.171875 5.332031 9.160156 5.332031 C 8.808594 5.335938 8.457031 5.320312 8.105469 5.292969 C 7.027344 5.230469 5.960938 5.101562 4.902344 4.902344 C 4.792969 4.886719 4.691406 4.863281 4.589844 4.824219 C 4.589844 4.421875 4.589844 4.015625 4.589844 3.613281 Z M 4.589844 3.613281 "/>
<path style=" stroke:none;fill-rule:evenodd;fill:rgb(37.254902%,74.509804%,99.607843%);fill-opacity:1;" d="M 13.964844 3.847656 C 13.925781 4.261719 13.914062 4.679688 13.925781 5.097656 C 13.433594 5.164062 12.9375 5.21875 12.441406 5.253906 C 12.484375 5.21875 12.535156 5.203125 12.597656 5.214844 C 12.597656 4.8125 12.597656 4.40625 12.597656 4.003906 C 13.054688 3.953125 13.507812 3.902344 13.964844 3.847656 Z M 13.964844 3.847656 "/>
<path style=" stroke:none;fill-rule:evenodd;fill:rgb(44.705882%,77.647059%,99.607843%);fill-opacity:1;" d="M 12.246094 4.003906 C 12.363281 4.003906 12.480469 4.003906 12.597656 4.003906 C 12.597656 4.40625 12.597656 4.8125 12.597656 5.214844 C 12.535156 5.203125 12.484375 5.21875 12.441406 5.253906 C 12.414062 5.253906 12.390625 5.253906 12.363281 5.253906 C 12.101562 5.265625 11.84375 5.28125 11.582031 5.292969 C 11.347656 5.3125 11.113281 5.324219 10.878906 5.332031 C 10.949219 5.292969 11.027344 5.28125 11.113281 5.292969 C 11.113281 4.890625 11.113281 4.484375 11.113281 4.082031 C 11.191406 4.082031 11.269531 4.082031 11.347656 4.082031 C 11.648438 4.070312 11.949219 4.042969 12.246094 4.003906 Z M 12.246094 4.003906 "/>
<path style=" stroke:none;fill-rule:evenodd;fill:rgb(52.54902%,80.784314%,99.607843%);fill-opacity:1;" d="M 8.652344 4.082031 C 8.679688 4.082031 8.703125 4.082031 8.730469 4.082031 C 9.34375 4.082031 9.953125 4.082031 10.566406 4.082031 C 10.75 4.082031 10.929688 4.082031 11.113281 4.082031 C 11.113281 4.484375 11.113281 4.890625 11.113281 5.292969 C 11.027344 5.28125 10.949219 5.292969 10.878906 5.332031 C 10.710938 5.332031 10.539062 5.332031 10.371094 5.332031 C 10.28125 5.332031 10.1875 5.332031 10.097656 5.332031 C 9.835938 5.332031 9.578125 5.332031 9.316406 5.332031 C 9.277344 5.332031 9.238281 5.332031 9.199219 5.332031 C 9.023438 5.292969 8.84375 5.28125 8.652344 5.292969 C 8.652344 4.890625 8.652344 4.484375 8.652344 4.082031 Z M 8.652344 4.082031 "/>
<use xlink:href="#surface38" mask="url(#mask11)"/>
<use xlink:href="#surface41" mask="url(#mask12)"/>
<path style=" stroke:none;fill-rule:evenodd;fill:rgb(0.784314%,55.686275%,92.156863%);fill-opacity:1;" d="M 4.902344 4.902344 C 5.960938 5.101562 7.027344 5.230469 8.105469 5.292969 C 8.105469 6.464844 8.105469 7.636719 8.105469 8.808594 C 7.023438 7.519531 5.957031 6.214844 4.902344 4.902344 Z M 4.902344 4.902344 "/>
<path style=" stroke:none;fill-rule:evenodd;fill:rgb(6.666667%,54.509804%,90.980392%);fill-opacity:1;" d="M 14.511719 5.019531 C 13.78125 5.761719 13.027344 6.480469 12.246094 7.167969 C 12.246094 6.542969 12.246094 5.917969 12.246094 5.292969 C 12.296875 5.300781 12.335938 5.289062 12.363281 5.253906 C 12.390625 5.253906 12.414062 5.253906 12.441406 5.253906 C 12.9375 5.21875 13.433594 5.164062 13.925781 5.097656 C 14.121094 5.0625 14.316406 5.035156 14.511719 5.019531 Z M 14.511719 5.019531 "/>
<path style=" stroke:none;fill-rule:evenodd;fill:rgb(10.196078%,61.960784%,96.470588%);fill-opacity:1;" d="M 8.105469 5.292969 C 8.457031 5.320312 8.808594 5.335938 9.160156 5.332031 C 9.148438 6.914062 9.160156 8.488281 9.199219 10.058594 C 9.148438 10.136719 9.082031 10.203125 9.003906 10.253906 C 8.96875 10.082031 8.910156 9.914062 8.828125 9.746094 C 8.59375 9.425781 8.351562 9.113281 8.105469 8.808594 C 8.105469 7.636719 8.105469 6.464844 8.105469 5.292969 Z M 8.105469 5.292969 "/>
<path style=" stroke:none;fill-rule:evenodd;fill:rgb(19.215686%,66.666667%,98.431373%);fill-opacity:1;" d="M 9.160156 5.332031 C 9.171875 5.332031 9.1875 5.332031 9.199219 5.332031 C 9.238281 5.332031 9.277344 5.332031 9.316406 5.332031 C 9.316406 6.867188 9.316406 8.40625 9.316406 9.941406 C 9.289062 9.992188 9.25 10.03125 9.199219 10.058594 C 9.160156 8.488281 9.148438 6.914062 9.160156 5.332031 Z M 9.160156 5.332031 "/>
<path style=" stroke:none;fill-rule:evenodd;fill:rgb(11.764706%,62.352941%,96.862745%);fill-opacity:1;" d="M 11.582031 5.292969 C 11.527344 5.332031 11.460938 5.34375 11.386719 5.332031 C 11.386719 6.21875 11.386719 7.101562 11.386719 7.988281 C 11.007812 8.367188 10.617188 8.730469 10.214844 9.082031 C 10.175781 7.851562 10.164062 6.613281 10.175781 5.371094 C 10.25 5.382812 10.316406 5.371094 10.371094 5.332031 C 10.539062 5.332031 10.710938 5.332031 10.878906 5.332031 C 11.113281 5.324219 11.347656 5.3125 11.582031 5.292969 Z M 11.582031 5.292969 "/>
<path style=" stroke:none;fill-rule:evenodd;fill:rgb(6.666667%,58.431373%,94.117647%);fill-opacity:1;" d="M 12.363281 5.253906 C 12.335938 5.289062 12.296875 5.300781 12.246094 5.292969 C 12.246094 5.917969 12.246094 6.542969 12.246094 7.167969 C 11.960938 7.441406 11.675781 7.714844 11.386719 7.988281 C 11.386719 7.101562 11.386719 6.21875 11.386719 5.332031 C 11.460938 5.34375 11.527344 5.332031 11.582031 5.292969 C 11.84375 5.28125 12.101562 5.265625 12.363281 5.253906 Z M 12.363281 5.253906 "/>
<path style=" stroke:none;fill-rule:evenodd;fill:rgb(31.764706%,71.764706%,99.215686%);fill-opacity:1;" d="M 9.316406 5.332031 C 9.578125 5.332031 9.835938 5.332031 10.097656 5.332031 C 10.027344 5.371094 9.949219 5.382812 9.863281 5.371094 C 9.863281 6.726562 9.863281 8.078125 9.863281 9.433594 C 9.683594 9.601562 9.5 9.773438 9.316406 9.941406 C 9.316406 8.40625 9.316406 6.867188 9.316406 5.332031 Z M 9.316406 5.332031 "/>
<path style=" stroke:none;fill-rule:evenodd;fill:rgb(23.137255%,68.235294%,98.823529%);fill-opacity:1;" d="M 10.097656 5.332031 C 10.1875 5.332031 10.28125 5.332031 10.371094 5.332031 C 10.316406 5.371094 10.25 5.382812 10.175781 5.371094 C 10.164062 6.613281 10.175781 7.851562 10.214844 9.082031 C 10.109375 9.210938 9.992188 9.328125 9.863281 9.433594 C 9.863281 8.078125 9.863281 6.726562 9.863281 5.371094 C 9.949219 5.382812 10.027344 5.371094 10.097656 5.332031 Z M 10.097656 5.332031 "/>
<path style=" stroke:none;fill-rule:evenodd;fill:rgb(10.980392%,61.960784%,96.470588%);fill-opacity:1;" d="M 12.128906 8.378906 C 12.167969 8.394531 12.175781 8.421875 12.148438 8.457031 C 11.851562 8.800781 11.566406 9.152344 11.289062 9.511719 C 11.167969 9.664062 11.078125 9.832031 11.015625 10.019531 C 10.996094 12.9375 10.988281 15.851562 10.996094 18.769531 C 10.832031 18.785156 10.675781 18.761719 10.527344 18.691406 C 10.539062 15.769531 10.527344 12.851562 10.488281 9.941406 C 11.023438 9.40625 11.570312 8.886719 12.128906 8.378906 Z M 12.128906 8.378906 "/>
<path style=" stroke:none;fill-rule:evenodd;fill:rgb(13.72549%,64.705882%,98.039216%);fill-opacity:1;" d="M 10.488281 9.941406 C 10.527344 12.851562 10.539062 15.769531 10.527344 18.691406 C 10.371094 18.671875 10.226562 18.617188 10.097656 18.535156 C 10.175781 15.773438 10.203125 13 10.175781 10.214844 C 10.28125 10.125 10.382812 10.03125 10.488281 9.941406 Z M 10.488281 9.941406 "/>
<path style=" stroke:none;fill-rule:evenodd;fill:rgb(25.882353%,69.411765%,98.823529%);fill-opacity:1;" d="M 10.175781 10.214844 C 10.203125 13 10.175781 15.773438 10.097656 18.535156 C 10.007812 18.515625 9.929688 18.476562 9.863281 18.417969 C 9.875 15.792969 9.863281 13.175781 9.824219 10.566406 C 9.929688 10.4375 10.046875 10.320312 10.175781 10.214844 Z M 10.175781 10.214844 "/>
<path style=" stroke:none;fill-rule:evenodd;fill:rgb(33.333333%,72.941176%,99.607843%);fill-opacity:1;" d="M 9.824219 10.566406 C 9.863281 13.175781 9.875 15.792969 9.863281 18.417969 C 9.703125 18.371094 9.558594 18.292969 9.433594 18.183594 C 9.433594 15.773438 9.433594 13.367188 9.433594 10.957031 C 9.550781 10.8125 9.679688 10.683594 9.824219 10.566406 Z M 9.824219 10.566406 "/>
<path style=" stroke:none;fill-rule:evenodd;fill:rgb(25.490196%,69.019608%,98.823529%);fill-opacity:1;" d="M 9.433594 10.957031 C 9.433594 13.367188 9.433594 15.773438 9.433594 18.183594 C 9.394531 18.15625 9.355469 18.132812 9.316406 18.105469 C 9.316406 15.75 9.316406 13.390625 9.316406 11.035156 C 9.335938 10.980469 9.375 10.953125 9.433594 10.957031 Z M 9.433594 10.957031 "/>
<path style=" stroke:none;fill-rule:evenodd;fill:rgb(13.72549%,63.137255%,96.862745%);fill-opacity:1;" d="M 9.316406 11.035156 C 9.316406 13.390625 9.316406 15.75 9.316406 18.105469 C 9.1875 18.007812 9.074219 17.890625 8.984375 17.753906 C 8.964844 15.632812 8.957031 13.507812 8.964844 11.386719 C 9.070312 11.257812 9.1875 11.140625 9.316406 11.035156 Z M 9.316406 11.035156 "/>
</g>
</svg>
